COMPSCIX 415.3 Homework 4
…
February 20, 2018

library(tidyverse)
library(nycflights13)

Exercise 5.6.7

2.Come up with another approach that will give you the same output as not_cancelled %>% count(dest)

not_cancelled <- flights %>% 
  filter(!is.na(dep_delay), !is.na(arr_delay))
not_cancelled %>% 
  count(dest)

## # A tibble: 104 x 2
##    dest      n
##    <chr> <int>
##  1 ABQ     254
##  2 ACK     264
##  3 ALB     418
##  4 ANC       8
##  5 ATL   16837
##  6 AUS    2411
##  7 AVL     261
##  8 BDL     412
##  9 BGR     358
## 10 BHM     269
## # ... with 94 more rows

not_cancelled <- flights %>% 
  filter(!is.na(dep_delay), !is.na(arr_delay))

not_cancelled %>% group_by(dest) %>%
  summarize (n=n())

## # A tibble: 104 x 2
##    dest      n
##    <chr> <int>
##  1 ABQ     254
##  2 ACK     264
##  3 ALB     418
##  4 ANC       8
##  5 ATL   16837
##  6 AUS    2411
##  7 AVL     261
##  8 BDL     412
##  9 BGR     358
## 10 BHM     269
## # ... with 94 more rows

Come up with another approach that will give you the same output as not_cancelled %>% count(tailnum, wt = distance) (without using count()).

not_cancelled <- flights %>% 
  filter(!is.na(dep_delay), !is.na(arr_delay))

not_cancelled %>% count(tailnum, wt = distance)

## # A tibble: 4,037 x 2
##    tailnum      n
##    <chr>    <dbl>
##  1 D942DN    3418
##  2 N0EGMQ  239143
##  3 N10156  109664
##  4 N102UW   25722
##  5 N103US   24619
##  6 N104UW   24616
##  7 N10575  139903
##  8 N105UW   23618
##  9 N107US   21677
## 10 N108UW   32070
## # ... with 4,027 more rows

not_cancelled <- flights %>% 
  filter(!is.na(dep_delay), !is.na(arr_delay))

not_cancelled %>% group_by (tailnum) %>%
  summarize(n = sum(distance))

## # A tibble: 4,037 x 2
##    tailnum      n
##    <chr>    <dbl>
##  1 D942DN    3418
##  2 N0EGMQ  239143
##  3 N10156  109664
##  4 N102UW   25722
##  5 N103US   24619
##  6 N104UW   24616
##  7 N10575  139903
##  8 N105UW   23618
##  9 N107US   21677
## 10 N108UW   32070
## # ... with 4,027 more rows
…
mtcars1 <- as_tibble(mtcars) %>% print()

## # A tibble: 32 x 11
##      mpg   cyl  disp    hp  drat    wt  qsec    vs    am  gear  carb
##  * <dbl> <dbl> <dbl> <dbl> <dbl> <dbl> <dbl> <dbl> <dbl> <dbl> <dbl>
##  1  21.0  6.00   160 110    3.90  2.62  16.5  0     1.00  4.00  4.00
##  2  21.0  6.00   160 110    3.90  2.88  17.0  0     1.00  4.00  4.00
##  3  22.8  4.00   108  93.0  3.85  2.32  18.6  1.00  1.00  4.00  1.00
##  4  21.4  6.00   258 110    3.08  3.22  19.4  1.00  0     3.00  1.00
##  5  18.7  8.00   360 175    3.15  3.44  17.0  0     0     3.00  2.00
##  6  18.1  6.00   225 105    2.76  3.46  20.2  1.00  0     3.00  1.00
##  7  14.3  8.00   360 245    3.21  3.57  15.8  0     0     3.00  4.00
##  8  24.4  4.00   147  62.0  3.69  3.19  20.0  1.00  0     4.00  2.00
##  9  22.8  4.00   141  95.0  3.92  3.15  22.9  1.00  0     4.00  2.00
## 10  19.2  6.00   168 123    3.92  3.44  18.3  1.00  0     4.00  4.00
## # ... with 22 more rows
…
